year,sp500
1970,84.37
1971,97.29
1972,109.6
1973,109.8
1974,69.44
1975,88.57
1976,101.9
1977,93.74
1978,100.6
1979,104.5
1980,130.2
1981,119.8
1982,132.7
1983,167.7
1984,164.8
1985,186.2
1986,237.4
1987,280.2
1988,277.4
1989,347.4
1990,307.12
1991,386.88
1992,412.5
1993,463.9
1994,463.81
1995,582.92
1996,701.46
1997,951.16
1998,1032.47
1999,1300.01
2000,1390.14
2001,1076.59
2002,854.63
2003,1038.73
2004,1117.21
2005,1191.96
2006,1363.38
2007,1539.66
2008,968.8
2009,1067.66
2010,1171.58
2011,1207.22
2012,1437.82
2013,1720.03
2014,1937.27
2015,2024.81
2016,2143.02
2017,2557
2018,2789.8
